<?xml version="1.0" standalone="no"?>
<!DOCTYPE svg PUBLIC "-//W3C//DTD SVG 20010904//EN"
 "http://www.w3.org/TR/2001/REC-SVG-20010904/DTD/svg10.dtd">
<svg version="1.0" xmlns="http://www.w3.org/2000/svg"
 width="260.000000pt" height="260.000000pt" viewBox="0 0 260.000000 260.000000"
 preserveAspectRatio="xMidYMid meet">
<metadata>
Created by potrace 1.11, written by Peter Selinger 2001-2013
</metadata>
<g transform="translate(0.000000,260.000000) scale(0.100000,-0.100000)"
fill="#000000" stroke="none">
<path d="M1578 2400 c-22 -49 -99 -236 -130 -315 -27 -69 -177 -433 -193 -470
-7 -16 -68 -165 -135 -330 -66 -165 -125 -309 -130 -320 -5 -11 -31 -74 -58
-140 -27 -66 -83 -203 -125 -305 -42 -102 -91 -223 -111 -270 -19 -46 -33 -87
-31 -90 4 -7 313 -6 318 1 2 2 27 62 56 134 29 72 59 144 66 160 7 17 64 154
125 305 106 257 191 465 460 1120 60 146 136 331 169 413 34 81 61 148 61 150
0 1 -73 2 -161 2 l-162 0 -19 -45z"/>
</g>
</svg>
